x;y;land_type (id from landTypes.xml);description;level
0;0;2;Z lekkim wahaniem przestepujesz na skraj dziwnej polany. Cala roślinność wydaje się być znacznie większych rozmiarów, nawet zwykła trawa sięga Ci do pasa. Widzisz kilka dziwnej odmiany kwiatów - lecz ich jaskrawe kolory utwierdzają Cie w przekonaniu, że ich wzrost wspomagany był magią.;0
0;1;3;Stajesz u stóp wysokiej na setki stóp skały. Nie masz złudzeń - wspinaczka pod takim  kątem na pewno źle się skończy.;0
0;3;4;Pustynia ciągnie się coraz dalej.Na północ kamienna płyta nie pozwala na ruch w tym kierunku.;0
0;4;4;Żar leje się z nieba. Piasek rozsuwa się pod stopami przy każdym kroku znacznie spowalniając marsz.;0
0;5;4;Żar leje się z nieba. Piasek rozsuwa się pod stopami przy każdym kroku znacznie spowalniając marsz.;0
0;6;4;Żar leje się z nieba. Piasek rozsuwa się pod stopami przy każdym kroku znacznie spowalniając marsz.;0
0;7;4;Żar leje się z nieba. Piasek rozsuwa się pod stopami przy każdym kroku znacznie spowalniając marsz.;0
0;8;4;Żar leje się z nieba. Piasek rozsuwa się pod stopami przy każdym kroku znacznie spowalniając marsz.;0
0;9;4;Żar leje się z nieba. Piasek rozsuwa się pod stopami przy każdym kroku znacznie spowalniając marsz.;0
1;0;2;Drzewa są coraz gęstsze a bór zdaje się szumieć bardziej złowieszczo. Na południe poprzez plątanine grubych konarów widać prześwity czegoś szarego i dużego. To musi być skała - nie ma po co tam się pchać.;0
1;2;4;Ilości złotego piasku pozwalają Ci stwierdzić, że znajdujesz się na skraju pustyni.Na zachód kamienna płyta nie pozwala na ruch w tym kierunku.;0
1;3;4;Ilości złotego piasku pozwalają Ci stwierdzić, że znajdujesz się na skraju pustyni.;0
1;4;4;Ilości złotego piasku pozwalają Ci stwierdzić, że znajdujesz się na skraju pustyni.;0
1;5;4;Ilości złotego piasku pozwalają Ci stwierdzić, że znajdujesz się na skraju pustyni.;0
1;6;4;Pustynny teren sprawia, że zasycha Ci w ustach.;0
1;7;4;Pustynny teren sprawia, że zasycha Ci w ustach.;0
1;8;4;Pustynny teren sprawia, że zasycha Ci w ustach.;0
1;9;4;Pustynny teren sprawia, że zasycha Ci w ustach.;0
2;0;2;Gałęzie okolicznych drzew sprawiają wrażenie, jakby się ruszały. Nie zauważyłeś ruchu, na pewno jednak wcześniej nie były skierowane w Twoim kierunku...;0
2;1;2;W partiach lasu w których się znalazłeś wszystko wydaje się dziwnie spokojne... Na południe widzsz równinne tereny.;0
2;2;1;Idziesz równiną rozpościerającą się na niewielkim obszarze. Na zachód widzisz olbrzymie ilości piasku. ;0
2;3;1;Równina która podązasz wydaje się mała w porównaniu do obszaru pełnego piasku, który widzisz na zachodzie.;0
2;4;1;Równina która podązasz wydaje się mała w porównaniu do obszaru pełnego piasku, który widzisz na zachodzie.;0
2;5;1;Równina która podązasz wydaje się mała w porównaniu do niedalekich obszarów pełnych piasku.;0
2;6;4;Ilości złotego piasku pozwalają Ci stwierdzić, że znajdujesz się na skraju pustyni.;0
2;7;4;Ilości złotego piasku pozwalają Ci stwierdzić, że znajdujesz się na skraju pustyni.;0
2;8;4;Ilości złotego piasku pozwalają Ci stwierdzić, że znajdujesz się na skraju pustyni.;0
2;9;4;Ilości złotego piasku pozwalają Ci stwierdzić, że znajdujesz się na skraju pustyni.;0
3;0;2;Drzewa sa tutaj gęste, ich gałęzie niepokojąco sie poskręcały.;0
3;1;2;W partiach lasu w których się znalazłeś wszystko wydaje się dziwnie spokojne...;0
3;2;1;Mijając krańce równiny stajesz na jej skraju, przed ciemnym gąszczem drzew.;0
3;3;1;Idąc równiną widzisz bór na północy.;0
3;4;1;Idąc równiną widzisz bór daleko na północ.;0
3;5;1;Idąc przed siebie równiną, daleko na zachodzie widzisz góry piasku.;0
3;6;1;Idąc przed siebie równiną widzisz wielkie obszary piasku na zachodzie.;0
3;7;1;Idąc przed siebie równiną widzisz wielkie obszary piasku na zachodzie.;0
3;8;1;Idąc przed siebie równiną widzisz wielkie obszary piasku na zachodzie.;0
3;9;1;Idąc przed siebie równiną widzisz wielkie obszary piasku na zachodzie.;0
4;0;2;Idziesz przez las - zdaje się, że nie zauważając niczego niepokojącego...;0
4;1;2;W partiach lasu w których się znalazłeś wszystko wydaje się dziwnie spokojne...;0
4;2;1;Poskręcane konary drzew lężą wszędzie wokół. Muszą pochodzić z boru, na północ od Twojej aktualnej pozycji.;0
4;3;1;Równina ciągnie się na południe. Na północ widoczny wielki bór.;0
4;4;1;Idąc równiną widzisz bór daleko na północ.;0
4;5;1;Idziesz zielona równiną rozglądając się wokół.;0
4;6;1;Idziesz zielona równiną rozglądając się wokół.;0
4;7;1;Idziesz zielona równiną rozglądając się wokół.;0
4;8;1;Idziesz zielona równiną rozglądając się wokół.;0
4;9;1;Idziesz zielona równiną rozglądając się wokół.;0
5;0;2;Idąc przez las nie zauważając niczego niepokojącego.;0
5;1;2;Odgarniając gałęzie zastanawiasz się, co sprawiło, że zdecydowałeś się zagłebić w las. Ciche pomruki w okolicy nie dają Ci spokoju.;0
5;2;1;Stojąc na równinie patrzysz w nieprzebytą paszczę zarośniętego, pradawnego boru. ;0
5;3;1;Zielona równina rozpościera się zachód. Na północy bór majaczy całkiem blisko.;0
5;4;1;Zielona równina rozpościera się zachód. Na północ widnieje olbrzymi bór.;0
5;5;1;Zielona równina rozpościera się na zachód. Daleko na północ widnieje olbrzymi bór.;0
5;6;1;Idziesz zielona równiną rozglądając się wokół.;0
5;7;1;Idziesz zielona równiną rozglądając się wokół.;0
5;8;1;Idziesz zielona równiną rozglądając się wokół.;0
5;9;1;Na wschód widzisz przełęcz. Ciekawe gdzie ona prowadzi...;0
6;0;2;Idziesz przez las - zdaje się, że nie zauważając niczego niepokojącego...;0
6;1;2;Idąc przez ciemny bór, raz na jakiś czas słyszysz cichy pomruk. Na południe rozpościera się równina.;0
6;3;3;Na wschód widzisz wysokie partie góskie. Możesz tylko podziwiać z daleka zamarznięte szczyty.;0
6;4;3;Na wschód widzisz wysokie partie góskie. Możesz tylko podziwiać z daleka zamarznięte szczyty.;0
6;5;3;Na wschód widzisz wysokie partie góskie. Możesz tylko podziwiać z daleka zamarznięte szczyty.;0
6;6;3;Na wschód widzisz wysokie partie góskie. Możesz tylko podziwiać z daleka zamarznięte szczyty.;0
6;7;3;Na wschód widzisz wysokie partie góskie. Możesz tylko podziwiać z daleka zamarznięte szczyty.;0
6;8;3;Na wschód widzisz wysokie partie góskie. Możesz tylko podziwiać z daleka zamarznięte szczyty.;0
6;9;1;Przełęcz ciągnie się dalej, niż się spodziewałeś. Idziesz nią dalej, widząc naokoło pasma górskie.;0
7;0;2;Idziesz przez las - zdaje się, że nie zauważając niczego niepokojącego...;0
7;1;2;Idąc przez ciemny bór, coraz częściej słyszysz pomruki. Na południe rozpościera się równina.;0
7;2;3;Przed Tobą wysoka iglica skalna. Nie ma co marzyć o wdrapaniu się na szczyt.;0
7;9;3;Przed sobą widzisz tereny górskie. Sporo śniegu i niska temperatura sprawiają, że zaczynasz lekko drżeć.;0
8;0;2;W tej okolicy drzewa wydają się jakby większe niż w okolicznych partiach lasu. ;0
8;1;2;Idąc przez bór coraz trudniej rozgarniać Ci gałęzie. Na wschód bardziej gęsto. Zauważalnie coś tam jest. I wydaje dziwne odgłosy...;0
8;2;2;Nagle idąc przed siebie zaczynasz się wspinać. Teren płynnie przekształcił się w górskie ostępy.;0
8;3;3;Na południu i zachodzie widzisz wysokie partie góskie. Możesz tylko podziwiać z daleka zamarznięte szczyty.;0
8;5;3;Na północy widzisz wysokie partie góskie. Możesz tylko podziwiać z daleka zamarznięte szczyty.;0
8;6;3;Teren zaczyna powoli się podnosić. Zimno sprawia, że mocniej zapinasz swoje podrózne ubranie.;0
8;7;3;Robi się coraz zimniej. Czubki gór lśnia z dala oszałamiającą bielą.;0
8;8;3;Duże głazy na drodze utrudniają wędrówkę, mijasz je jednak sprawnie.;0
8;9;3;Teren lekko się podnosi, nie sprawia CI jednak żadnych kłopotów ani nie spowalnia podróży.;0
9;0;2;Ślady dużych, zakończonych szponami łap sprawiają że zaczynasz czuć się nieswojo.;0
9;1;2;Między drzewami nagle zaczynaja się lekkie prześwity. Jeśli coś tu było...na pewno musiało zmienić pozycję.;0
9;2;2;Bór niespodziewanie się kończy a Ty widzisz przed sobą skalną półkę.;0
9;3;3;Półka okazuję się nieco większa niż sądziłeś. Wszędzie wokół lężą ponadgryzane kości.Dalej na południe pionowa ściana skał.;0
9;5;3;Na północy widzisz wysokie partie góskie. Możesz tylko podziwiać z daleka zamarznięte szczyty.;0
9;6;3;Teren zaczyna powoli się podnosić. Zimno sprawia, że mocniej zapinasz swoje podrózne ubranie.;0
9;7;3;Idziesz przed siebie - zdaje się, że nie zauważając niczego niepokojącego...;0
9;8;3;Wszędzie wokół leża rozbite naczynia. Rozgarniając lekka warstwę śniegu znajdujesz ślady starego ogniska.;0
9;9;3;Robi się coraz zimniej. Czubki gór lśnia z dala oszałamiającą bielą.;0
6;5;6;Jaskinia;-1
6;6;6;Jaskinia;-1
6;7;6;Jaskinia;-1
6;8;6;Jaskinia;-1
6;9;6;Jaskinia;-1
6;8;6;Jaskinia;-2
6;9;6;Jaskinia;-2