monster;land_type;probability
1;1;20
2;1;20
5;1;6
6;1;1
7;1;12
8;1;1
13;1;5
19;1;1
21;1;10
22;1;1
24;1;1
1;2;1
2;2;1
3;2;1
4;2;1
5;2;1
6;2;1
7;2;1
8;2;1
9;2;20
10;2;20
11;2;20
12;2;26
13;2;1
14;2;1
15;2;14
16;2;14
17;2;1
18;2;1
19;2;1
20;2;14
21;2;1
22;2;14
23;2;14
24;2;14
25;2;1
26;2;1
1;3;1
2;3;1
3;3;1
4;3;1
5;3;2
6;3;16
7;3;16
8;3;16
9;3;1
10;3;1
11;3;1
12;3;1
13;3;1
14;3;16
15;3;1
16;3;1
17;3;4
18;3;1
19;3;16
20;3;1
21;3;1
22;3;1
23;3;1
24;3;1
25;3;4
26;3;4
1;4;1
2;4;1
3;4;16
4;4;16
5;4;16
6;4;16
7;4;16
8;4;16
9;4;1
10;4;1
11;4;1
12;4;1
13;4;1
14;4;16
15;4;1
16;4;1
17;4;16
18;4;16
19;4;16
20;4;14
21;4;1
22;4;1
23;4;1
24;4;1
25;4;10
26;4;10